Lab 11: Factorial ANOVA in Repeated-Measures Design
…
Two-Way Repeated ANOVA (Within- & Within-Subjects Factor)

Data preparation

selfesteem2 เป็นข้อมูล \(2 \times 3\) repeated measures

กลุ่มตัวอย่าง 12 คน ผ่าน 2 เงื่อนไข คือ Diet Diet และ control ctr และวัดซ้ำ 3 ครั้ง

ข้อมูลชุดนี้อยู่ในรูปแบบผสมระหว่างแบบกว้าง (เวลา) และแบบยาว (เงื่อนไข) จึงจำเป็นต้องเปลี่ยนให้อยู่ในแบบยาวทั้งหมดก่อน

data("selfesteem2")
selfesteem2

## # A tibble: 24 × 5
##    id    treatment    t1    t2    t3
##    <fct> <fct>     <dbl> <dbl> <dbl>
##  1 1     ctr          83    77    69
##  2 2     ctr          97    95    88
##  3 3     ctr          93    92    89
##  4 4     ctr          92    92    89
##  5 5     ctr          77    73    68
##  6 6     ctr          72    65    63
##  7 7     ctr          92    89    79
##  8 8     ctr          92    87    81
##  9 9     ctr          95    91    84
## 10 10    ctr          92    84    81
## # … with 14 more rows

selfesteem_long <- pivot_longer(selfesteem2, cols = c("t1", "t2", "t3"), names_to = "time", values_to = "se" )
selfesteem_long

## # A tibble: 72 × 4
##    id    treatment time     se
##    <fct> <fct>     <chr> <dbl>
##  1 1     ctr       t1       83
##  2 1     ctr       t2       77
##  3 1     ctr       t3       69
##  4 2     ctr       t1       97
##  5 2     ctr       t2       95
##  6 2     ctr       t3       88
##  7 3     ctr       t1       93
##  8 3     ctr       t2       92
##  9 3     ctr       t3       89
## 10 4     ctr       t1       92
## # … with 62 more rows
…
