Lab 10: Repeated-Measures ANOVA
…
ข้อมูลแบบยาวเป็นรูปแบบที่เหมาะสำหรับข้อมูลเชิงซ้อน (nested data) การออกแบบแบบวัดซ้ำก็นับว่าเป็นข้อมูลเชิงซ้อนแบบหนึ่ง นั่นคือ การสังเกตหรือการวัด (observation) แต่ละครั้งซ้อนอยู่ในตัวกลุ่มตัวอย่างแต่ละคน

ในข้อมูลแบบยาว การสังเกตแต่ละครั้งจะแสดงในแต่ละแถว ข้อมูลจากกลุ่มตัวอย่างคนเดียวกันจะถูกระบุในคอลัมน์ id และการวัดซ้ำแต่ละครั้งจะแสดงด้วยคอลัมน์ Time

ในข้อมูลตัวอย่างนี้ กลุ่มตัวอย่างมีจำนวน 10 คน แต่ละคนถูกวัด 3 ครั้ง ดังนั้นข้อมูลแบบยาวจะมีทั้งหมด 30 แถว

คำสั่งการวิเคราะห์ใน R เกือบทั้งหมดจะใช้รูปแบบ long format นี้เป็นหลัก

se_long <- tidyr::pivot_longer(selfesteem, cols = c("t1", "t2", "t3"), names_to = "Time", values_to = "selfesteem")

se_long$Time <- factor(se_long$Time)
se_long$id <- factor(se_long$id) #very important. If ID is numerical, the results will be incorrect.
se_long

## # A tibble: 30 × 3
##    id    Time  selfesteem
##    <fct> <fct>      <dbl>
##  1 1     t1          4.01
##  2 1     t2          5.18
##  3 1     t3          7.11
##  4 2     t1          2.56
##  5 2     t2          6.91
##  6 2     t3          6.31
##  7 3     t1          3.24
##  8 3     t2          4.44
##  9 3     t3          9.78
## 10 4     t1          3.42
## # … with 20 more rows
…
