Lab 08: Data Cleaning
…
.SAV (SPSS files)

ถ้าข้อมูลเป็นไฟล์ข้อมูลจาก SPSS จะต้องใช้คำสั่งจากแพ็คเกจ haven เพื่อนำเข้าข้อมูล แต่ข้อมูลจะอยู่ในรูปแบบของตารางที่เรียกว่า tibble (tbl_df) ซึ่งไม่ใช่ data.frame ปกติ

big5_spss <- read_sav("SURVEY_Lab08_Data.sav")
big5_spss

## # A tibble: 2,800 × 30
##       ID    A1    A2    A3    A4    A5    C1    C2    C3    C4    C5    E1    E2    E3    E4    E5    N1    N2    N3
##    <dbl> <dbl> <dbl> <dbl> <dbl> <dbl> <dbl> <dbl> <dbl> <dbl> <dbl> <dbl> <dbl> <dbl> <dbl> <dbl> <dbl> <dbl> <dbl>
##  1 61617     2     4     3     4     4     2     3     3     4     4     3     3     3     4     4     3     4     2
##  2 61618     2     4     5     2     5     5     4     4     3     4     1     1     6     4     3     3     3     3
##  3 61620     5     4     5     4     4     4     5     4     2     5     2     4     4     4     5     4     5     4
##  4 61621     4     4     6     5     5     4     4     3     5     5     5     3     4     4     4     2     5     2
##  5 61622     2     3     3     4     5     4     4     5     3     2     2     2     5     4     5     2     3     4
##  6 61623     6     6     5     6     5     6     6     6     1     3     2     1     6     5     6     3     5     2
##  7 61624     2     5     5     3     5     5     4     4     2     3     4     3     4     5     5     1     2     2
##  8 61629     4     3     1     5     1     3     2     4     2     4     3     6     4     2     1     6     3     2
##  9 61630     4     3     6     3     3     6     6     3     4     5     5     3    NA     4     3     5     5     2
## 10 61633     2     5     6     6     5     6     5     6     2     1     2     2     4     5     5     5     5     5
## # … with 2,790 more rows, and 11 more variables: N4 <dbl>, N5 <dbl>, O1 <dbl>, O2 <dbl>, O3 <dbl>, O4 <dbl>,
## #   O5 <dbl>, gender <dbl+lbl>, education <dbl+lbl>, age <dbl>, completed <dbl+lbl>
…
